hero_id,attribute_id,attribute_value
"1","1","80"
"2","1","75"
"3","1","95"
"4","1","80"
"5","1","85"
"6","1","100"
"8","1","85"
"9","1","85"
"10","1","80"
"11","1","60"
"12","1","90"
"13","1","80"
"16","1","80"
"17","1","55"
"18","1","85"
"19","1","80"
"21","1","85"
"22","1","35"
"23","1","35"
"24","1","90"
"26","1","75"
"27","1","75"
"28","1","95"
"29","1","80"
"30","1","90"
"31","1","100"
"32","1","90"
"34","1","75"
"35","1","90"
"36","1","100"
"37","1","60"
"38","1","85"
"39","1","95"
"40","1","80"
"41","1","85"
"42","1","75"
"43","1","85"
"45","1","90"
"44","1","90"
"46","1","80"
"47","1","80"
"48","1","80"
"51","1","85"
"53","1","85"
"50","1","85"
"52","1","85"
"54","1","90"
"55","1","75"
"56","1","95"
"58","1","85"
"59","1","85"
"60","1","80"
"61","1","85"
"62","1","95"
"63","1","60"
"64","1","95"
"65","1","80"
"66","1","65"
"67","1","70"
"68","1","95"
"69","1","80"
"70","1","85"
"72","1","90"
"73","1","100"
"75","1","95"
"74","1","95"
"76","1","80"
"79","1","100"
"80","1","80"
"81","1","70"
"82","1","90"
"83","1","85"
"84","1","100"
"85","1","95"
"86","1","95"
"87","1","75"
"88","1","90"
"89","1","85"
"91","1","95"
"92","1","80"
"93","1","65"
"96","1","90"
"97","1","85"
"98","1","75"
"100","1","95"
"101","1","90"
"102","1","85"
"103","1","85"
"104","1","90"
"105","1","75"
"107","1","85"
"108","1","80"
"109","1","90"
"110","1","90"
"111","1","95"
"113","1","90"
"114","1","85"
"115","1","75"
"116","1","80"
"117","1","85"
"120","1","80"
"121","1","75"
"122","1","75"
"123","1","60"
"124","1","85"
"125","1","80"
"126","1","65"
"127","1","85"
"128","1","85"
"129","1","80"
"130","1","85"
"132","1","90"
"133","1","75"
"135","1","85"
"138","1","80"
"139","1","100"
"140","1","100"
"141","1","90"
"143","1","85"
"144","1","85"
"145","1","80"
"146","1","85"
"148","1","75"
"149","1","95"
"150","1","85"
"151","1","80"
"153","1","85"
"154","1","95"
"155","1","90"
"156","1","80"
"157","1","85"
"158","1","65"
"159","1","85"
"162","1","90"
"164","1","80"
"165","1","95"
"167","1","90"
"169","1","85"
"171","1","95"
"172","1","85"
"173","1","80"
"175","1","95"
"176","1","85"
"177","1","75"
"178","1","75"
"179","1","95"
"180","1","80"
"183","1","80"
"184","1","75"
"185","1","70"
"186","1","85"
"187","1","90"
"188","1","70"
"191","1","85"
"192","1","80"
"193","1","70"
"194","1","80"
"195","1","60"
"196","1","85"
"197","1","85"
"199","1","60"
"200","1","90"
"201","1","90"
"202","1","90"
"203","1","75"
"204","1","85"
"206","1","75"
"208","1","80"
"209","1","95"
"210","1","95"
"212","1","75"
"213","1","80"
"214","1","85"
"215","1","65"
"216","1","100"
"217","1","85"
"218","1","80"
"220","1","80"
"221","1","85"
"222","1","90"
"223","1","80"
"224","1","80"
"225","1","75"
"226","1","80"
"227","1","90"
"228","1","100"
"229","1","95"
"230","1","95"
"231","1","100"
"232","1","100"
"233","1","85"
"234","1","95"
"235","1","90"
"236","1","90"
"237","1","50"
"238","1","95"
"239","1","100"
"240","1","80"
"241","1","95"
"242","1","85"
"243","1","85"
"244","1","85"
"245","1","80"
"246","1","90"
"247","1","90"
"248","1","85"
"249","1","80"
"252","1","80"
"253","1","85"
"254","1","80"
"255","1","85"
"257","1","75"
"258","1","95"
"259","1","95"
"260","1","75"
"262","1","80"
"263","1","75"
"264","1","75"
"265","1","80"
"266","1","80"
"267","1","75"
"268","1","90"
"269","1","85"
"271","1","95"
"272","1","85"
"273","1","85"
"274","1","85"
"275","1","85"
"276","1","75"
"277","1","85"
"278","1","75"
"280","1","85"
"281","1","90"
"282","1","80"
"283","1","85"
"284","1","100"
"285","1","80"
"287","1","70"
"288","1","95"
"290","1","95"
"291","1","80"
"292","1","90"
"293","1","75"
"294","1","80"
"295","1","80"
"298","1","95"
"299","1","100"
"300","1","80"
"301","1","75"
"302","1","95"
"304","1","90"
"306","1","90"
"307","1","85"
"308","1","75"
"309","1","80"
"310","1","80"
"311","1","80"
"312","1","90"
"313","1","90"
"316","1","80"
"317","1","85"
"318","1","95"
"319","1","90"
"321","1","75"
"322","1","80"
"323","1","80"
"325","1","90"
"326","1","90"
"327","1","75"
"328","1","75"
"330","1","75"
"331","1","85"
"332","1","85"
"334","1","80"
"335","1","85"
"336","1","75"
"337","1","80"
"338","1","65"
"339","1","85"
"340","1","85"
"341","1","75"
"342","1","95"
"343","1","85"
"344","1","85"
"345","1","85"
"347","1","75"
"348","1","95"
"349","1","85"
"350","1","80"
"351","1","85"
"352","1","90"
"353","1","75"
"355","1","90"
"356","1","100"
"357","1","95"
"358","1","90"
"360","1","85"
"361","1","35"
"364","1","85"
"365","1","60"
"367","1","85"
"368","1","100"
"369","1","90"
"370","1","90"
"371","1","90"
"375","1","60"
"376","1","75"
"377","1","95"
"379","1","85"
"381","1","90"
"382","1","100"
"383","1","85"
"384","1","80"
"385","1","90"
"386","1","75"
"387","1","80"
"388","1","80"
"389","1","70"
"391","1","100"
"392","1","85"
"393","1","90"
"394","1","80"
"395","1","65"
"396","1","75"
"397","1","65"
"398","1","70"
"399","1","65"
"400","1","95"
"402","1","80"
"403","1","80"
"404","1","90"
"405","1","85"
"407","1","80"
"408","1","80"
"410","1","55"
"412","1","80"
"413","1","90"
"414","1","85"
"415","1","100"
"416","1","65"
"418","1","90"
"419","1","100"
"420","1","75"
"421","1","75"
"422","1","75"
"423","1","90"
"424","1","100"
"425","1","55"
"426","1","80"
"427","1","100"
"428","1","95"
"429","1","80"
"430","1","100"
"431","1","80"
"433","1","85"
"434","1","75"
"435","1","70"
"436","1","90"
"437","1","85"
"438","1","95"
"439","1","80"
"440","1","95"
"441","1","100"
"442","1","75"
"443","1","80"
"444","1","85"
"445","1","100"
"446","1","85"
"447","1","100"
"448","1","85"
"450","1","90"
"451","1","90"
"452","1","85"
"453","1","85"
"454","1","90"
"455","1","80"
"456","1","90"
"457","1","75"
"458","1","95"
"459","1","80"
"460","1","90"
"461","1","70"
"463","1","95"
"464","1","85"
"465","1","85"
"466","1","75"
"467","1","85"
"469","1","85"
"470","1","85"
"471","1","100"
"472","1","90"
"473","1","90"
"474","1","100"
"475","1","100"
"476","1","100"
"477","1","90"
"478","1","100"
"479","1","80"
"481","1","85"
"482","1","75"
"483","1","80"
"484","1","95"
"485","1","80"
"486","1","80"
"487","1","80"
"488","1","85"
"489","1","65"
"490","1","90"
"491","1","80"
"492","1","80"
"493","1","75"
"494","1","85"
"495","1","95"
"496","1","90"
"498","1","80"
"499","1","80"
"500","1","75"
"502","1","85"
"503","1","80"
"504","1","90"
"505","1","80"
"506","1","95"
"507","1","85"
"508","1","85"
"509","1","85"
"510","1","80"
"511","1","100"
"513","1","100"
"514","1","80"
"515","1","70"
"517","1","65"
"518","1","100"
"519","1","95"
"520","1","90"
"521","1","90"
"523","1","100"
"524","1","55"
"525","1","50"
"528","1","65"
"529","1","95"
"530","1","70"
"531","1","70"
"532","1","75"
"533","1","100"
"534","1","100"
"535","1","85"
"537","1","80"
"538","1","80"
"539","1","95"
"540","1","85"
"541","1","100"
"542","1","50"
"543","1","85"
"544","1","100"
"545","1","100"
"546","1","85"
"547","1","85"
"548","1","85"
"549","1","80"
"550","1","75"
"551","1","100"
"552","1","90"
"554","1","95"
"555","1","85"
"556","1","75"
"557","1","100"
"558","1","85"
"560","1","85"
"561","1","80"
"562","1","80"
"563","1","70"
"565","1","90"
"566","1","80"
"567","1","65"
"568","1","95"
"569","1","90"
"574","1","85"
"575","1","65"
"576","1","95"
"577","1","100"
"578","1","100"
"580","1","95"
"581","1","90"
"582","1","95"
"583","1","85"
"584","1","80"
"585","1","90"
"586","1","80"
"587","1","90"
"589","1","90"
"590","1","80"
"591","1","90"
"592","1","80"
"593","1","90"
"594","1","95"
"595","1","95"
"596","1","85"
"597","1","95"
"598","1","90"
"599","1","95"
"600","1","100"
"601","1","75"
"602","1","80"
"603","1","85"
"604","1","90"
"606","1","90"
"607","1","85"
"608","1","95"
"609","1","85"
"610","1","85"
"611","1","95"
"612","1","95"
"614","1","85"
"615","1","85"
"616","1","80"
"618","1","85"
"619","1","90"
"621","1","85"
"622","1","80"
"623","1","80"
"625","1","90"
"626","1","80"
"628","1","75"
"629","1","80"
"631","1","80"
"632","1","80"
"633","1","55"
"634","1","90"
"635","1","75"
"636","1","90"
"637","1","95"
"640","1","80"
"641","1","65"
"642","1","85"
"643","1","90"
"644","1","100"
"646","1","80"
"648","1","80"
"650","1","95"
"653","1","85"
"654","1","95"
"655","1","80"
"656","1","85"
"657","1","85"
"658","1","95"
"659","1","85"
"660","1","100"
"661","1","90"
"662","1","60"
"663","1","85"
"664","1","90"
"665","1","100"
"666","1","100"
"667","1","100"
"668","1","95"
"669","1","95"
"670","1","90"
"671","1","90"
"672","1","90"
"673","1","90"
"674","1","90"
"675","1","90"
"676","1","90"
"677","1","90"
"678","1","75"
"679","1","100"
"680","1","100"
"682","1","85"
"683","1","100"
"684","1","90"
"685","1","85"
"686","1","90"
"687","1","80"
"690","1","85"
"691","1","75"
"692","1","75"
"693","1","85"
"694","1","100"
"696","1","80"
"698","1","80"
"700","1","95"
"701","1","85"
"702","1","80"
"703","1","95"
"704","1","80"
"706","1","80"
"709","1","75"
"710","1","85"
"711","1","95"
"712","1","90"
"713","1","80"
"714","1","85"
"715","1","85"
"717","1","80"
"719","1","85"
"720","1","55"
"721","1","80"
"724","1","80"
"725","1","70"
"726","1","90"
"727","1","80"
"728","1","85"
"730","1","95"
"731","1","75"
"732","1","75"
"733","1","85"
"734","1","100"
"735","1","80"
"736","1","85"
"737","1","80"
"738","1","80"
"741","1","75"
"742","1","85"
"743","1","90"
"744","1","90"
"745","1","95"
"747","1","60"
"748","1","90"
"749","1","95"
"752","1","80"
"753","1","80"
"754","1","95"
"756","1","80"
"1","2","35"
"2","2","100"
"3","2","30"
"4","2","90"
"5","2","80"
"6","2","100"
"8","2","10"
"9","2","10"
"10","2","40"
"11","2","10"
"12","2","30"
"13","2","85"
"16","2","80"
"17","2","35"
"18","2","10"
"19","2","30"
"21","2","100"
"22","2","45"
"23","2","25"
"24","2","30"
"26","2","55"
"27","2","10"
"28","2","100"
"29","2","50"
"30","2","80"
"31","2","20"
"32","2","20"
"34","2","60"
"35","2","60"
"36","2","100"
"37","2","20"
"38","2","45"
"39","2","85"
"40","2","50"
"41","2","15"
"42","2","65"
"43","2","100"
"45","2","85"
"44","2","100"
"46","2","10"
"47","2","65"
"48","2","55"
"51","2","80"
"53","2","80"
"50","2","100"
"52","2","100"
"54","2","95"
"55","2","10"
"56","2","10"
"58","2","55"
"59","2","10"
"60","2","15"
"61","2","20"
"62","2","95"
"63","2","50"
"64","2","40"
"65","2","10"
"66","2","55"
"67","2","45"
"68","2","15"
"69","2","65"
"70","2","15"
"72","2","10"
"73","2","20"
"75","2","40"
"74","2","15"
"76","2","55"
"79","2","50"
"80","2","30"
"81","2","60"
"82","2","100"
"83","2","80"
"84","2","100"
"85","2","100"
"86","2","100"
"87","2","10"
"88","2","15"
"89","2","40"
"91","2","100"
"92","2","40"
"93","2","10"
"96","2","55"
"97","2","15"
"98","2","95"
"100","2","100"
"101","2","70"
"102","2","10"
"103","2","10"
"104","2","20"
"105","2","10"
"107","2","10"
"108","2","15"
"109","2","10"
"110","2","30"
"111","2","20"
"113","2","60"
"114","2","35"
"115","2","10"
"116","2","30"
"117","2","30"
"120","2","10"
"121","2","75"
"122","2","10"
"123","2","85"
"124","2","80"
"125","2","10"
"126","2","75"
"127","2","80"
"128","2","45"
"129","2","35"
"130","2","10"
"132","2","90"
"133","2","10"
"135","2","85"
"138","2","75"
"139","2","95"
"140","2","10"
"141","2","60"
"143","2","35"
"144","2","30"
"145","2","15"
"146","2","30"
"148","2","10"
"149","2","50"
"150","2","55"
"151","2","10"
"153","2","20"
"154","2","95"
"155","2","80"
"156","2","10"
"157","2","85"
"158","2","10"
"159","2","85"
"162","2","85"
"164","2","90"
"165","2","95"
"167","2","85"
"169","2","15"
"171","2","80"
"172","2","70"
"173","2","10"
"175","2","10"
"176","2","10"
"177","2","10"
"178","2","20"
"179","2","100"
"180","2","40"
"183","2","95"
"184","2","10"
"185","2","40"
"186","2","10"
"187","2","10"
"188","2","65"
"191","2","85"
"192","2","10"
"193","2","35"
"194","2","10"
"195","2","60"
"196","2","70"
"197","2","20"
"199","2","100"
"200","2","55"
"201","2","95"
"202","2","10"
"203","2","35"
"204","2","10"
"206","2","10"
"208","2","35"
"209","2","15"
"210","2","100"
"212","2","10"
"213","2","50"
"214","2","50"
"215","2","15"
"216","2","35"
"217","2","10"
"218","2","10"
"220","2","10"
"221","2","35"
"222","2","30"
"223","2","50"
"224","2","95"
"225","2","20"
"226","2","15"
"227","2","80"
"228","2","35"
"229","2","75"
"230","2","20"
"231","2","50"
"232","2","10"
"233","2","10"
"234","2","15"
"235","2","90"
"236","2","100"
"237","2","65"
"238","2","95"
"239","2","100"
"240","2","80"
"241","2","80"
"242","2","35"
"243","2","10"
"244","2","15"
"245","2","10"
"246","2","10"
"247","2","65"
"248","2","15"
"249","2","80"
"252","2","85"
"253","2","35"
"254","2","35"
"255","2","85"
"257","2","15"
"258","2","85"
"259","2","95"
"260","2","30"
"262","2","85"
"263","2","10"
"264","2","65"
"265","2","10"
"266","2","55"
"267","2","80"
"268","2","70"
"269","2","10"
"271","2","50"
"272","2","10"
"273","2","10"
"274","2","10"
"275","2","80"
"276","2","10"
"277","2","55"
"278","2","80"
"280","2","10"
"281","2","85"
"282","2","90"
"283","2","5"
"284","2","100"
"285","2","75"
"287","2","85"
"288","2","85"
"290","2","90"
"291","2","100"
"292","2","10"
"293","2","100"
"294","2","35"
"295","2","100"
"298","2","55"
"299","2","100"
"300","2","35"
"301","2","10"
"302","2","15"
"304","2","55"
"306","2","90"
"307","2","80"
"308","2","90"
"309","2","85"
"310","2","90"
"311","2","90"
"312","2","85"
"313","2","65"
"316","2","10"
"317","2","90"
"318","2","15"
"319","2","10"
"321","2","40"
"322","2","15"
"323","2","10"
"325","2","40"
"326","2","85"
"327","2","85"
"328","2","80"
"330","2","10"
"331","2","100"
"332","2","55"
"334","2","65"
"335","2","100"
"336","2","15"
"337","2","10"
"338","2","60"
"339","2","80"
"340","2","10"
"341","2","55"
"342","2","100"
"343","2","15"
"344","2","10"
"345","2","65"
"347","2","15"
"348","2","100"
"349","2","35"
"350","2","10"
"351","2","10"
"352","2","65"
"353","2","30"
"355","2","55"
"356","2","85"
"357","2","65"
"358","2","50"
"360","2","55"
"361","2","35"
"364","2","15"
"365","2","10"
"367","2","35"
"368","2","80"
"369","2","10"
"370","2","10"
"371","2","60"
"375","2","45"
"376","2","40"
"377","2","10"
"379","2","10"
"381","2","15"
"382","2","10"
"383","2","15"
"384","2","10"
"385","2","20"
"386","2","100"
"387","2","40"
"388","2","10"
"389","2","40"
"391","2","50"
"392","2","65"
"393","2","10"
"394","2","10"
"395","2","10"
"396","2","10"
"397","2","5"
"398","2","45"
"399","2","55"
"400","2","10"
"402","2","100"
"403","2","90"
"404","2","20"
"405","2","40"
"407","2","95"
"408","2","35"
"410","2","80"
"412","2","45"
"413","2","75"
"414","2","30"
"415","2","10"
"416","2","5"
"418","2","20"
"419","2","55"
"420","2","10"
"421","2","10"
"422","2","10"
"423","2","55"
"424","2","100"
"425","2","35"
"426","2","55"
"427","2","100"
"428","2","65"
"429","2","10"
"430","2","100"
"431","2","65"
"433","2","40"
"434","2","10"
"435","2","65"
"436","2","40"
"437","2","35"
"438","2","80"
"439","2","50"
"440","2","100"
"441","2","100"
"442","2","20"
"443","2","35"
"444","2","45"
"445","2","30"
"446","2","10"
"447","2","95"
"448","2","85"
"450","2","75"
"451","2","95"
"452","2","10"
"453","2","10"
"454","2","90"
"455","2","10"
"456","2","35"
"457","2","10"
"458","2","85"
"459","2","65"
"460","2","55"
"461","2","85"
"463","2","10"
"464","2","10"
"465","2","15"
"466","2","30"
"467","2","70"
"469","2","35"
"470","2","85"
"471","2","10"
"472","2","35"
"473","2","10"
"474","2","85"
"475","2","50"
"476","2","25"
"477","2","35"
"478","2","20"
"479","2","85"
"481","2","100"
"482","2","40"
"483","2","75"
"484","2","100"
"485","2","10"
"486","2","40"
"487","2","70"
"488","2","60"
"489","2","50"
"490","2","30"
"491","2","10"
"492","2","85"
"493","2","65"
"494","2","15"
"495","2","10"
"496","2","15"
"498","2","85"
"499","2","75"
"500","2","90"
"502","2","55"
"503","2","10"
"504","2","15"
"505","2","10"
"506","2","15"
"507","2","55"
"508","2","5"
"509","2","45"
"510","2","20"
"511","2","85"
"513","2","85"
"514","2","10"
"515","2","70"
"517","2","100"
"518","2","100"
"519","2","100"
"520","2","15"
"521","2","85"
"523","2","20"
"524","2","30"
"525","2","15"
"528","2","45"
"529","2","10"
"530","2","60"
"531","2","35"
"532","2","10"
"533","2","10"
"534","2","100"
"535","2","60"
"537","2","65"
"538","2","10"
"539","2","15"
"540","2","75"
"541","2","100"
"542","2","80"
"543","2","30"
"544","2","10"
"545","2","10"
"546","2","40"
"547","2","35"
"548","2","20"
"549","2","10"
"550","2","10"
"551","2","15"
"552","2","40"
"554","2","15"
"555","2","30"
"556","2","10"
"557","2","30"
"558","2","5"
"560","2","20"
"561","2","10"
"562","2","10"
"563","2","85"
"565","2","15"
"566","2","100"
"567","2","10"
"568","2","15"
"569","2","10"
"574","2","10"
"575","2","80"
"576","2","15"
"577","2","10"
"578","2","10"
"580","2","15"
"581","2","15"
"582","2","15"
"583","2","10"
"584","2","10"
"585","2","35"
"586","2","5"
"587","2","10"
"589","2","10"
"590","2","50"
"591","2","10"
"592","2","75"
"593","2","80"
"594","2","10"
"595","2","85"
"596","2","70"
"597","2","10"
"598","2","55"
"599","2","55"
"600","2","10"
"601","2","30"
"602","2","55"
"603","2","85"
"604","2","100"
"606","2","15"
"607","2","10"
"608","2","10"
"609","2","15"
"610","2","50"
"611","2","100"
"612","2","100"
"614","2","75"
"615","2","10"
"616","2","10"
"618","2","90"
"619","2","50"
"621","2","50"
"622","2","100"
"623","2","30"
"625","2","85"
"626","2","65"
"628","2","10"
"629","2","85"
"631","2","35"
"632","2","35"
"633","2","95"
"634","2","40"
"635","2","20"
"636","2","75"
"637","2","100"
"640","2","10"
"641","2","75"
"642","2","40"
"643","2","55"
"644","2","55"
"646","2","45"
"648","2","50"
"650","2","20"
"653","2","20"
"654","2","85"
"655","2","80"
"656","2","80"
"657","2","10"
"658","2","85"
"659","2","10"
"660","2","100"
"661","2","10"
"662","2","10"
"663","2","65"
"664","2","95"
"665","2","100"
"666","2","100"
"667","2","100"
"668","2","100"
"669","2","95"
"670","2","20"
"671","2","10"
"672","2","70"
"673","2","35"
"674","2","35"
"675","2","80"
"676","2","65"
"677","2","15"
"678","2","10"
"679","2","100"
"680","2","100"
"682","2","15"
"683","2","100"
"684","2","85"
"685","2","100"
"686","2","85"
"687","2","35"
"690","2","80"
"691","2","85"
"692","2","75"
"693","2","35"
"694","2","10"
"696","2","35"
"698","2","55"
"700","2","100"
"701","2","10"
"702","2","65"
"703","2","10"
"704","2","80"
"706","2","80"
"709","2","85"
"710","2","10"
"711","2","100"
"712","2","60"
"713","2","60"
"714","2","75"
"715","2","60"
"717","2","10"
"719","2","65"
"720","2","65"
"721","2","10"
"724","2","40"
"725","2","70"
"726","2","25"
"727","2","30"
"728","2","80"
"730","2","40"
"731","2","10"
"732","2","75"
"733","2","20"
"734","2","80"
"735","2","65"
"736","2","10"
"737","2","45"
"738","2","35"
"741","2","20"
"742","2","35"
"743","2","90"
"744","2","100"
"745","2","100"
"747","2","10"
"748","2","25"
"749","2","55"
"752","2","10"
"753","2","100"
"754","2","55"
"756","2","10"
"1","3","45"
"2","3","20"
"3","3","35"
"4","3","55"
"5","3","55"
"6","3","85"
"8","3","15"
"9","3","35"
"10","3","45"
"11","3","15"
"12","3","40"
"13","3","100"
"16","3","45"
"17","3","40"
"18","3","20"
"19","3","45"
"21","3","85"
"22","3","35"
"23","3","30"
"24","3","60"
"26","3","25"
"27","3","30"
"28","3","100"
"29","3","50"
"30","3","50"
"31","3","25"
"32","3","20"
"34","3","55"
"35","3","65"
"36","3","35"
"37","3","15"
"38","3","45"
"39","3","80"
"40","3","50"
"41","3","60"
"42","3","25"
"43","3","100"
"45","3","35"
"44","3","75"
"46","3","15"
"47","3","15"
"48","3","60"
"51","3","25"
"53","3","25"
"50","3","45"
"52","3","45"
"54","3","75"
"55","3","25"
"56","3","35"
"58","3","55"
"59","3","100"
"60","3","50"
"61","3","20"
"62","3","95"
"63","3","35"
"64","3","25"
"65","3","60"
"66","3","25"
"67","3","50"
"68","3","35"
"69","3","70"
"70","3","30"
"72","3","25"
"73","3","30"
"75","3","30"
"74","3","35"
"76","3","35"
"79","3","40"
"80","3","50"
"81","3","65"
"82","3","100"
"83","3","35"
"84","3","100"
"85","3","60"
"86","3","80"
"87","3","15"
"88","3","25"
"89","3","35"
"91","3","100"
"92","3","35"
"93","3","35"
"96","3","70"
"97","3","25"
"98","3","100"
"100","3","95"
"101","3","100"
"102","3","35"
"103","3","35"
"104","3","35"
"105","3","100"
"107","3","10"
"108","3","55"
"109","3","35"
"110","3","50"
"111","3","30"
"113","3","80"
"114","3","45"
"115","3","35"
"116","3","10"
"117","3","40"
"120","3","20"
"121","3","60"
"122","3","30"
"123","3","25"
"124","3","35"
"125","3","50"
"126","3","65"
"127","3","80"
"128","3","55"
"129","3","60"
"130","3","40"
"132","3","80"
"133","3","15"
"135","3","45"
"138","3","25"
"139","3","65"
"140","3","25"
"141","3","50"
"143","3","25"
"144","3","45"
"145","3","25"
"146","3","25"
"148","3","10"
"149","3","25"
"150","3","25"
"151","3","25"
"153","3","40"
"154","3","85"
"155","3","50"
"156","3","20"
"157","3","75"
"158","3","85"
"159","3","85"
"162","3","30"
"164","3","75"
"165","3","95"
"167","3","80"
"169","3","35"
"171","3","55"
"172","3","70"
"173","3","20"
"175","3","20"
"176","3","25"
"177","3","45"
"178","3","45"
"179","3","90"
"180","3","25"
"183","3","35"
"184","3","15"
"185","3","45"
"186","3","50"
"187","3","20"
"188","3","60"
"191","3","35"
"192","3","25"
"193","3","45"
"194","3","10"
"195","3","40"
"196","3","60"
"197","3","15"
"199","3","75"
"200","3","45"
"201","3","95"
"202","3","25"
"203","3","40"
"204","3","35"
"206","3","10"
"208","3","35"
"209","3","25"
"210","3","85"
"212","3","35"
"213","3","50"
"214","3","35"
"215","3","95"
"216","3","25"
"217","3","35"
"218","3","35"
"220","3","25"
"221","3","30"
"222","3","35"
"223","3","45"
"224","3","60"
"225","3","25"
"226","3","15"
"227","3","35"
"228","3","20"
"229","3","55"
"230","3","25"
"231","3","35"
"232","3","15"
"233","3","30"
"234","3","50"
"235","3","85"
"236","3","70"
"237","3","60"
"238","3","85"
"239","3","45"
"240","3","25"
"241","3","85"
"242","3","35"
"243","3","50"
"244","3","30"
"245","3","15"
"246","3","35"
"247","3","35"
"248","3","25"
"249","3","85"
"252","3","20"
"253","3","50"
"254","3","35"
"255","3","30"
"257","3","50"
"258","3","85"
"259","3","75"
"260","3","45"
"262","3","25"
"263","3","40"
"264","3","75"
"265","3","55"
"266","3","60"
"267","3","60"
"268","3","70"
"269","3","100"
"271","3","100"
"272","3","100"
"273","3","100"
"274","3","15"
"275","3","50"
"276","3","5"
"277","3","35"
"278","3","50"
"280","3","25"
"281","3","45"
"282","3","65"
"283","3","10"
"284","3","100"
"285","3","75"
"287","3","95"
"288","3","40"
"290","3","25"
"291","3","100"
"292","3","25"
"293","3","55"
"294","3","50"
"295","3","75"
"298","3","35"
"299","3","90"
"300","3","35"
"301","3","15"
"302","3","35"
"304","3","40"
"306","3","85"
"307","3","25"
"308","3","55"
"309","3","45"
"310","3","45"
"311","3","50"
"312","3","35"
"313","3","65"
"316","3","20"
"317","3","70"
"318","3","35"
"319","3","25"
"321","3","35"
"322","3","25"
"323","3","10"
"325","3","60"
"326","3","85"
"327","3","90"
"328","3","85"
"330","3","20"
"331","3","50"
"332","3","25"
"334","3","60"
"335","3","50"
"336","3","95"
"337","3","30"
"338","3","60"
"339","3","80"
"340","3","15"
"341","3","55"
"342","3","65"
"343","3","65"
"344","3","25"
"345","3","35"
"347","3","25"
"348","3","100"
"349","3","55"
"350","3","100"
"351","3","20"
"352","3","50"
"353","3","20"
"355","3","35"
"356","3","60"
"357","3","25"
"358","3","75"
"360","3","100"
"361","3","70"
"364","3","20"
"365","3","35"
"367","3","25"
"368","3","25"
"369","3","20"
"370","3","35"
"371","3","100"
"375","3","45"
"376","3","25"
"377","3","10"
"379","3","10"
"381","3","35"
"382","3","15"
"383","3","30"
"384","3","25"
"385","3","40"
"386","3","45"
"387","3","20"
"388","3","35"
"389","3","50"
"391","3","60"
"392","3","70"
"393","3","25"
"394","3","25"
"395","3","15"
"396","3","25"
"397","3","95"
"398","3","100"
"399","3","35"
"400","3","15"
"402","3","75"
"403","3","50"
"404","3","25"
"405","3","35"
"407","3","65"
"408","3","25"
"410","3","100"
"412","3","35"
"413","3","80"
"414","3","45"
"415","3","15"
"416","3","15"
"418","3","50"
"419","3","25"
"420","3","35"
"421","3","25"
"422","3","25"
"423","3","35"
"424","3","100"
"425","3","30"
"426","3","60"
"427","3","55"
"428","3","50"
"429","3","30"
"430","3","85"
"431","3","30"
"433","3","45"
"434","3","85"
"435","3","50"
"436","3","60"
"437","3","35"
"438","3","30"
"439","3","25"
"440","3","70"
"441","3","100"
"442","3","50"
"443","3","10"
"444","3","35"
"445","3","25"
"446","3","35"
"447","3","95"
"448","3","50"
"450","3","35"
"451","3","85"
"452","3","15"
"453","3","15"
"454","3","35"
"455","3","15"
"456","3","35"
"457","3","15"
"458","3","35"
"459","3","80"
"460","3","25"
"461","3","70"
"463","3","50"
"464","3","15"
"465","3","50"
"466","3","30"
"467","3","50"
"469","3","25"
"470","3","60"
"471","3","20"
"472","3","15"
"473","3","20"
"474","3","100"
"475","3","50"
"476","3","35"
"477","3","40"
"478","3","25"
"479","3","85"
"481","3","70"
"482","3","35"
"483","3","25"
"484","3","100"
"485","3","35"
"486","3","25"
"487","3","50"
"488","3","35"
"489","3","40"
"490","3","15"
"491","3","10"
"492","3","35"
"493","3","25"
"494","3","25"
"495","3","20"
"496","3","25"
"498","3","45"
"499","3","50"
"500","3","75"
"502","3","15"
"503","3","10"
"504","3","25"
"505","3","50"
"506","3","35"
"507","3","35"
"508","3","10"
"509","3","40"
"510","3","85"
"511","3","75"
"513","3","70"
"514","3","35"
"515","3","50"
"517","3","95"
"518","3","100"
"519","3","35"
"520","3","25"
"521","3","60"
"523","3","35"
"524","3","20"
"525","3","25"
"528","3","70"
"529","3","15"
"530","3","100"
"531","3","35"
"532","3","25"
"533","3","25"
"534","3","85"
"535","3","25"
"537","3","25"
"538","3","25"
"539","3","30"
"540","3","45"
"541","3","100"
"542","3","40"
"543","3","25"
"544","3","15"
"545","3","100"
"546","3","25"
"547","3","25"
"548","3","25"
"549","3","10"
"550","3","15"
"551","3","20"
"552","3","50"
"554","3","30"
"555","3","100"
"556","3","15"
"557","3","35"
"558","3","10"
"560","3","50"
"561","3","30"
"562","3","95"
"563","3","80"
"565","3","25"
"566","3","50"
"567","3","25"
"568","3","30"
"569","3","15"
"574","3","25"
"575","3","45"
"576","3","25"
"577","3","15"
"578","3","10"
"580","3","30"
"581","3","30"
"582","3","30"
"583","3","35"
"584","3","25"
"585","3","15"
"586","3","25"
"587","3","15"
"589","3","30"
"590","3","40"
"591","3","15"
"592","3","50"
"593","3","25"
"594","3","50"
"595","3","35"
"596","3","55"
"597","3","15"
"598","3","60"
"599","3","60"
"600","3","30"
"601","3","45"
"602","3","60"
"603","3","15"
"604","3","100"
"606","3","30"
"607","3","70"
"608","3","25"
"609","3","30"
"610","3","45"
"611","3","90"
"612","3","45"
"614","3","25"
"615","3","25"
"616","3","25"
"618","3","70"
"619","3","75"
"621","3","70"
"622","3","100"
"623","3","35"
"625","3","55"
"626","3","80"
"628","3","50"
"629","3","30"
"631","3","30"
"632","3","25"
"633","3","15"
"634","3","30"
"635","3","35"
"636","3","50"
"637","3","100"
"640","3","35"
"641","3","70"
"642","3","60"
"643","3","65"
"644","3","70"
"646","3","45"
"648","3","30"
"650","3","20"
"653","3","35"
"654","3","100"
"655","3","35"
"656","3","50"
"657","3","45"
"658","3","55"
"659","3","55"
"660","3","85"
"661","3","50"
"662","3","10"
"663","3","35"
"664","3","85"
"665","3","100"
"666","3","100"
"667","3","100"
"668","3","60"
"669","3","25"
"670","3","50"
"671","3","15"
"672","3","25"
"673","3","35"
"674","3","20"
"675","3","25"
"676","3","30"
"677","3","50"
"678","3","45"
"679","3","35"
"680","3","35"
"682","3","20"
"683","3","100"
"684","3","25"
"685","3","85"
"686","3","70"
"687","3","30"
"690","3","70"
"691","3","35"
"692","3","50"
"693","3","55"
"694","3","25"
"696","3","60"
"698","3","65"
"700","3","85"
"701","3","25"
"702","3","50"
"703","3","15"
"704","3","35"
"706","3","25"
"709","3","75"
"710","3","75"
"711","3","95"
"712","3","65"
"713","3","50"
"714","3","35"
"715","3","65"
"717","3","20"
"719","3","55"
"720","3","25"
"721","3","15"
"724","3","50"
"725","3","75"
"726","3","45"
"727","3","10"
"728","3","65"
"730","3","80"
"731","3","25"
"732","3","50"
"733","3","60"
"734","3","70"
"735","3","65"
"736","3","35"
"737","3","45"
"738","3","25"
"741","3","35"
"742","3","50"
"743","3","25"
"744","3","55"
"745","3","80"
"747","3","15"
"748","3","45"
"749","3","55"
"752","3","35"
"753","3","30"
"754","3","35"
"756","3","100"
"1","4","45"
"2","4","20"
"3","4","35"
"4","4","55"
"5","4","55"
"6","4","85"
"8","4","15"
"9","4","35"
"10","4","45"
"11","4","15"
"12","4","40"
"13","4","100"
"16","4","45"
"17","4","40"
"18","4","20"
"19","4","45"
"21","4","85"
"22","4","35"
"23","4","30"
"24","4","60"
"26","4","25"
"27","4","30"
"28","4","100"
"29","4","50"
"30","4","50"
"31","4","25"
"32","4","20"
"34","4","55"
"35","4","65"
"36","4","35"
"37","4","15"
"38","4","45"
"39","4","80"
"40","4","50"
"41","4","60"
"42","4","25"
"43","4","100"
"45","4","35"
"44","4","75"
"46","4","15"
"47","4","15"
"48","4","60"
"51","4","25"
"53","4","25"
"50","4","45"
"52","4","45"
"54","4","75"
"55","4","25"
"56","4","35"
"58","4","55"
"59","4","100"
"60","4","50"
"61","4","20"
"62","4","95"
"63","4","35"
"64","4","25"
"65","4","60"
"66","4","25"
"67","4","50"
"68","4","35"
"69","4","70"
"70","4","30"
"72","4","25"
"73","4","30"
"75","4","30"
"74","4","35"
"76","4","35"
"79","4","40"
"80","4","50"
"81","4","65"
"82","4","100"
"83","4","35"
"84","4","100"
"85","4","60"
"86","4","80"
"87","4","15"
"88","4","25"
"89","4","35"
"91","4","100"
"92","4","35"
"93","4","35"
"96","4","70"
"97","4","25"
"98","4","100"
"100","4","95"
"101","4","100"
"102","4","35"
"103","4","35"
"104","4","35"
"105","4","100"
"107","4","10"
"108","4","55"
"109","4","35"
"110","4","50"
"111","4","30"
"113","4","80"
"114","4","45"
"115","4","35"
"116","4","10"
"117","4","40"
"120","4","20"
"121","4","60"
"122","4","30"
"123","4","25"
"124","4","35"
"125","4","50"
"126","4","65"
"127","4","80"
"128","4","55"
"129","4","60"
"130","4","40"
"132","4","80"
"133","4","15"
"135","4","45"
"138","4","25"
"139","4","65"
"140","4","25"
"141","4","50"
"143","4","25"
"144","4","45"
"145","4","25"
"146","4","25"
"148","4","10"
"149","4","25"
"150","4","25"
"151","4","25"
"153","4","40"
"154","4","85"
"155","4","50"
"156","4","20"
"157","4","75"
"158","4","85"
"159","4","85"
"162","4","30"
"164","4","75"
"165","4","95"
"167","4","80"
"169","4","35"
"171","4","55"
"172","4","70"
"173","4","20"
"175","4","20"
"176","4","25"
"177","4","45"
"178","4","45"
"179","4","90"
"180","4","25"
"183","4","35"
"184","4","15"
"185","4","45"
"186","4","50"
"187","4","20"
"188","4","60"
"191","4","35"
"192","4","25"
"193","4","45"
"194","4","10"
"195","4","40"
"196","4","60"
"197","4","15"
"199","4","75"
"200","4","45"
"201","4","95"
"202","4","25"
"203","4","40"
"204","4","35"
"206","4","10"
"208","4","35"
"209","4","25"
"210","4","85"
"212","4","35"
"213","4","50"
"214","4","35"
"215","4","95"
"216","4","25"
"217","4","35"
"218","4","35"
"220","4","25"
"221","4","30"
"222","4","35"
"223","4","45"
"224","4","60"
"225","4","25"
"226","4","15"
"227","4","35"
"228","4","20"
"229","4","55"
"230","4","25"
"231","4","35"
"232","4","15"
"233","4","30"
"234","4","50"
"235","4","85"
"236","4","70"
"237","4","60"
"238","4","85"
"239","4","45"
"240","4","25"
"241","4","85"
"242","4","35"
"243","4","50"
"244","4","30"
"245","4","15"
"246","4","35"
"247","4","35"
"248","4","25"
"249","4","85"
"252","4","20"
"253","4","50"
"254","4","35"
"255","4","30"
"257","4","50"
"258","4","85"
"259","4","75"
"260","4","45"
"262","4","25"
"263","4","40"
"264","4","75"
"265","4","55"
"266","4","60"
"267","4","60"
"268","4","70"
"269","4","100"
"271","4","100"
"272","4","100"
"273","4","100"
"274","4","15"
"275","4","50"
"276","4","5"
"277","4","35"
"278","4","50"
"280","4","25"
"281","4","45"
"282","4","65"
"283","4","10"
"284","4","100"
"285","4","75"
"287","4","95"
"288","4","40"
"290","4","25"
"291","4","100"
"292","4","25"
"293","4","55"
"294","4","50"
"295","4","75"
"298","4","35"
"299","4","90"
"300","4","35"
"301","4","15"
"302","4","35"
"304","4","40"
"306","4","85"
"307","4","25"
"308","4","55"
"309","4","45"
"310","4","45"
"311","4","50"
"312","4","35"
"313","4","65"
"316","4","20"
"317","4","70"
"318","4","35"
"319","4","25"
"321","4","35"
"322","4","25"
"323","4","10"
"325","4","60"
"326","4","85"
"327","4","90"
"328","4","85"
"330","4","20"
"331","4","50"
"332","4","25"
"334","4","60"
"335","4","50"
"336","4","95"
"337","4","30"
"338","4","60"
"339","4","80"
"340","4","15"
"341","4","55"
"342","4","65"
"343","4","65"
"344","4","25"
"345","4","35"
"347","4","25"
"348","4","100"
"349","4","55"
"350","4","100"
"351","4","20"
"352","4","50"
"353","4","20"
"355","4","35"
"356","4","60"
"357","4","25"
"358","4","75"
"360","4","100"
"361","4","70"
"364","4","20"
"365","4","35"
"367","4","25"
"368","4","25"
"369","4","20"
"370","4","35"
"371","4","100"
"375","4","45"
"376","4","25"
"377","4","10"
"379","4","10"
"381","4","35"
"382","4","15"
"383","4","30"
"384","4","25"
"385","4","40"
"386","4","45"
"387","4","20"
"388","4","35"
"389","4","50"
"391","4","60"
"392","4","70"
"393","4","25"
"394","4","25"
"395","4","15"
"396","4","25"
"397","4","95"
"398","4","100"
"399","4","35"
"400","4","15"
"402","4","75"
"403","4","50"
"404","4","25"
"405","4","35"
"407","4","65"
"408","4","25"
"410","4","100"
"412","4","35"
"413","4","80"
"414","4","45"
"415","4","15"
"416","4","15"
"418","4","50"
"419","4","25"
"420","4","35"
"421","4","25"
"422","4","25"
"423","4","35"
"424","4","100"
"425","4","30"
"426","4","60"
"427","4","55"
"428","4","50"
"429","4","30"
"430","4","85"
"431","4","30"
"433","4","45"
"434","4","85"
"435","4","50"
"436","4","60"
"437","4","35"
"438","4","30"
"439","4","25"
"440","4","70"
"441","4","100"
"442","4","50"
"443","4","10"
"444","4","35"
"445","4","25"
"446","4","35"
"447","4","95"
"448","4","50"
"450","4","35"
"451","4","85"
"452","4","15"
"453","4","15"
"454","4","35"
"455","4","15"
"456","4","35"
"457","4","15"
"458","4","35"
"459","4","80"
"460","4","25"
"461","4","70"
"463","4","50"
"464","4","15"
"465","4","50"
"466","4","30"
"467","4","50"
"469","4","25"
"470","4","60"
"471","4","20"
"472","4","15"
"473","4","20"
"474","4","100"
"475","4","50"
"476","4","35"
"477","4","40"
"478","4","25"
"479","4","85"
"481","4","70"
"482","4","35"
"483","4","25"
"484","4","100"
"485","4","35"
"486","4","25"
"487","4","50"
"488","4","35"
"489","4","40"
"490","4","15"
"491","4","10"
"492","4","35"
"493","4","25"
"494","4","25"
"495","4","20"
"496","4","25"
"498","4","45"
"499","4","50"
"500","4","75"
"502","4","15"
"503","4","10"
"504","4","25"
"505","4","50"
"506","4","35"
"507","4","35"
"508","4","10"
"509","4","40"
"510","4","85"
"511","4","75"
"513","4","70"
"514","4","35"
"515","4","50"
"517","4","95"
"518","4","100"
"519","4","35"
"520","4","25"
"521","4","60"
"523","4","35"
"524","4","20"
"525","4","25"
"528","4","70"
"529","4","15"
"530","4","100"
"531","4","35"
"532","4","25"
"533","4","25"
"534","4","85"
"535","4","25"
"537","4","25"
"538","4","25"
"539","4","30"
"540","4","45"
"541","4","100"
"542","4","40"
"543","4","25"
"544","4","15"
"545","4","100"
"546","4","25"
"547","4","25"
"548","4","25"
"549","4","10"
"550","4","15"
"551","4","20"
"552","4","50"
"554","4","30"
"555","4","100"
"556","4","15"
"557","4","35"
"558","4","10"
"560","4","50"
"561","4","30"
"562","4","95"
"563","4","80"
"565","4","25"
"566","4","50"
"567","4","25"
"568","4","30"
"569","4","15"
"574","4","25"
"575","4","45"
"576","4","25"
"577","4","15"
"578","4","10"
"580","4","30"
"581","4","30"
"582","4","30"
"583","4","35"
"584","4","25"
"585","4","15"
"586","4","25"
"587","4","15"
"589","4","30"
"590","4","40"
"591","4","15"
"592","4","50"
"593","4","25"
"594","4","50"
"595","4","35"
"596","4","55"
"597","4","15"
"598","4","60"
"599","4","60"
"600","4","30"
"601","4","45"
"602","4","60"
"603","4","15"
"604","4","100"
"606","4","30"
"607","4","70"
"608","4","25"
"609","4","30"
"610","4","45"
"611","4","90"
"612","4","45"
"614","4","25"
"615","4","25"
"616","4","25"
"618","4","70"
"619","4","75"
"621","4","70"
"622","4","100"
"623","4","35"
"625","4","55"
"626","4","80"
"628","4","50"
"629","4","30"
"631","4","30"
"632","4","25"
"633","4","15"
"634","4","30"
"635","4","35"
"636","4","50"
"637","4","100"
"640","4","35"
"641","4","70"
"642","4","60"
"643","4","65"
"644","4","70"
"646","4","45"
"648","4","30"
"650","4","20"
"653","4","35"
"654","4","100"
"655","4","35"
"656","4","50"
"657","4","45"
"658","4","55"
"659","4","55"
"660","4","85"
"661","4","50"
"662","4","10"
"663","4","35"
"664","4","85"
"665","4","100"
"666","4","100"
"667","4","100"
"668","4","60"
"669","4","25"
"670","4","50"
"671","4","15"
"672","4","25"
"673","4","35"
"674","4","20"
"675","4","25"
"676","4","30"
"677","4","50"
"678","4","45"
"679","4","35"
"680","4","35"
"682","4","20"
"683","4","100"
"684","4","25"
"685","4","85"
"686","4","70"
"687","4","30"
"690","4","70"
"691","4","35"
"692","4","50"
"693","4","55"
"694","4","25"
"696","4","60"
"698","4","65"
"700","4","85"
"701","4","25"
"702","4","50"
"703","4","15"
"704","4","35"
"706","4","25"
"709","4","75"
"710","4","75"
"711","4","95"
"712","4","65"
"713","4","50"
"714","4","35"
"715","4","65"
"717","4","20"
"719","4","55"
"720","4","25"
"721","4","15"
"724","4","50"
"725","4","75"
"726","4","45"
"727","4","10"
"728","4","65"
"730","4","80"
"731","4","25"
"732","4","50"
"733","4","60"
"734","4","70"
"735","4","65"
"736","4","35"
"737","4","45"
"738","4","25"
"741","4","35"
"742","4","50"
"743","4","25"
"744","4","55"
"745","4","80"
"747","4","15"
"748","4","45"
"749","4","55"
"752","4","35"
"753","4","30"
"754","4","35"
"756","4","100"
"1","5","45"
"2","5","20"
"3","5","35"
"4","5","55"
"5","5","55"
"6","5","85"
"8","5","15"
"9","5","35"
"10","5","45"
"11","5","15"
"12","5","40"
"13","5","100"
"16","5","45"
"17","5","40"
"18","5","20"
"19","5","45"
"21","5","85"
"22","5","35"
"23","5","30"
"24","5","60"
"26","5","25"
"27","5","30"
"28","5","100"
"29","5","50"
"30","5","50"
"31","5","25"
"32","5","20"
"34","5","55"
"35","5","65"
"36","5","35"
"37","5","15"
"38","5","45"
"39","5","80"
"40","5","50"
"41","5","60"
"42","5","25"
"43","5","100"
"45","5","35"
"44","5","75"
"46","5","15"
"47","5","15"
"48","5","60"
"51","5","25"
"53","5","25"
"50","5","45"
"52","5","45"
"54","5","75"
"55","5","25"
"56","5","35"
"58","5","55"
"59","5","100"
"60","5","50"
"61","5","20"
"62","5","95"
"63","5","35"
"64","5","25"
"65","5","60"
"66","5","25"
"67","5","50"
"68","5","35"
"69","5","70"
"70","5","30"
"72","5","25"
"73","5","30"
"75","5","30"
"74","5","35"
"76","5","35"
"79","5","40"
"80","5","50"
"81","5","65"
"82","5","100"
"83","5","35"
"84","5","100"
"85","5","60"
"86","5","80"
"87","5","15"
"88","5","25"
"89","5","35"
"91","5","100"
"92","5","35"
"93","5","35"
"96","5","70"
"97","5","25"
"98","5","100"
"100","5","95"
"101","5","100"
"102","5","35"
"103","5","35"
"104","5","35"
"105","5","100"
"107","5","10"
"108","5","55"
"109","5","35"
"110","5","50"
"111","5","30"
"113","5","80"
"114","5","45"
"115","5","35"
"116","5","10"
"117","5","40"
"120","5","20"
"121","5","60"
"122","5","30"
"123","5","25"
"124","5","35"
"125","5","50"
"126","5","65"
"127","5","80"
"128","5","55"
"129","5","60"
"130","5","40"
"132","5","80"
"133","5","15"
"135","5","45"
"138","5","25"
"139","5","65"
"140","5","25"
"141","5","50"
"143","5","25"
"144","5","45"
"145","5","25"
"146","5","25"
"148","5","10"
"149","5","25"
"150","5","25"
"151","5","25"
"153","5","40"
"154","5","85"
"155","5","50"
"156","5","20"
"157","5","75"
"158","5","85"
"159","5","85"
"162","5","30"
"164","5","75"
"165","5","95"
"167","5","80"
"169","5","35"
"171","5","55"
"172","5","70"
"173","5","20"
"175","5","20"
"176","5","25"
"177","5","45"
"178","5","45"
"179","5","90"
"180","5","25"
"183","5","35"
"184","5","15"
"185","5","45"
"186","5","50"
"187","5","20"
"188","5","60"
"191","5","35"
"192","5","25"
"193","5","45"
"194","5","10"
"195","5","40"
"196","5","60"
"197","5","15"
"199","5","75"
"200","5","45"
"201","5","95"
"202","5","25"
"203","5","40"
"204","5","35"
"206","5","10"
"208","5","35"
"209","5","25"
"210","5","85"
"212","5","35"
"213","5","50"
"214","5","35"
"215","5","95"
"216","5","25"
"217","5","35"
"218","5","35"
"220","5","25"
"221","5","30"
"222","5","35"
"223","5","45"
"224","5","60"
"225","5","25"
"226","5","15"
"227","5","35"
"228","5","20"
"229","5","55"
"230","5","25"
"231","5","35"
"232","5","15"
"233","5","30"
"234","5","50"
"235","5","85"
"236","5","70"
"237","5","60"
"238","5","85"
"239","5","45"
"240","5","25"
"241","5","85"
"242","5","35"
"243","5","50"
"244","5","30"
"245","5","15"
"246","5","35"
"247","5","35"
"248","5","25"
"249","5","85"
"252","5","20"
"253","5","50"
"254","5","35"
"255","5","30"
"257","5","50"
"258","5","85"
"259","5","75"
"260","5","45"
"262","5","25"
"263","5","40"
"264","5","75"
"265","5","55"
"266","5","60"
"267","5","60"
"268","5","70"
"269","5","100"
"271","5","100"
"272","5","100"
"273","5","100"
"274","5","15"
"275","5","50"
"276","5","5"
"277","5","35"
"278","5","50"
"280","5","25"
"281","5","45"
"282","5","65"
"283","5","10"
"284","5","100"
"285","5","75"
"287","5","95"
"288","5","40"
"290","5","25"
"291","5","100"
"292","5","25"
"293","5","55"
"294","5","50"
"295","5","75"
"298","5","35"
"299","5","90"
"300","5","35"
"301","5","15"
"302","5","35"
"304","5","40"
"306","5","85"
"307","5","25"
"308","5","55"
"309","5","45"
"310","5","45"
"311","5","50"
"312","5","35"
"313","5","65"
"316","5","20"
"317","5","70"
"318","5","35"
"319","5","25"
"321","5","35"
"322","5","25"
"323","5","10"
"325","5","60"
"326","5","85"
"327","5","90"
"328","5","85"
"330","5","20"
"331","5","50"
"332","5","25"
"334","5","60"
"335","5","50"
"336","5","95"
"337","5","30"
"338","5","60"
"339","5","80"
"340","5","15"
"341","5","55"
"342","5","65"
"343","5","65"
"344","5","25"
"345","5","35"
"347","5","25"
"348","5","100"
"349","5","55"
"350","5","100"
"351","5","20"
"352","5","50"
"353","5","20"
"355","5","35"
"356","5","60"
"357","5","25"
"358","5","75"
"360","5","100"
"361","5","70"
"364","5","20"
"365","5","35"
"367","5","25"
"368","5","25"
"369","5","20"
"370","5","35"
"371","5","100"
"375","5","45"
"376","5","25"
"377","5","10"
"379","5","10"
"381","5","35"
"382","5","15"
"383","5","30"
"384","5","25"
"385","5","40"
"386","5","45"
"387","5","20"
"388","5","35"
"389","5","50"
"391","5","60"
"392","5","70"
"393","5","25"
"394","5","25"
"395","5","15"
"396","5","25"
"397","5","95"
"398","5","100"
"399","5","35"
"400","5","15"
"402","5","75"
"403","5","50"
"404","5","25"
"405","5","35"
"407","5","65"
"408","5","25"
"410","5","100"
"412","5","35"
"413","5","80"
"414","5","45"
"415","5","15"
"416","5","15"
"418","5","50"
"419","5","25"
"420","5","35"
"421","5","25"
"422","5","25"
"423","5","35"
"424","5","100"
"425","5","30"
"426","5","60"
"427","5","55"
"428","5","50"
"429","5","30"
"430","5","85"
"431","5","30"
"433","5","45"
"434","5","85"
"435","5","50"
"436","5","60"
"437","5","35"
"438","5","30"
"439","5","25"
"440","5","70"
"441","5","100"
"442","5","50"
"443","5","10"
"444","5","35"
"445","5","25"
"446","5","35"
"447","5","95"
"448","5","50"
"450","5","35"
"451","5","85"
"452","5","15"
"453","5","15"
"454","5","35"
"455","5","15"
"456","5","35"
"457","5","15"
"458","5","35"
"459","5","80"
"460","5","25"
"461","5","70"
"463","5","50"
"464","5","15"
"465","5","50"
"466","5","30"
"467","5","50"
"469","5","25"
"470","5","60"
"471","5","20"
"472","5","15"
"473","5","20"
"474","5","100"
"475","5","50"
"476","5","35"
"477","5","40"
"478","5","25"
"479","5","85"
"481","5","70"
"482","5","35"
"483","5","25"
"484","5","100"
"485","5","35"
"486","5","25"
"487","5","50"
"488","5","35"
"489","5","40"
"490","5","15"
"491","5","10"
"492","5","35"
"493","5","25"
"494","5","25"
"495","5","20"
"496","5","25"
"498","5","45"
"499","5","50"
"500","5","75"
"502","5","15"
"503","5","10"
"504","5","25"
"505","5","50"
"506","5","35"
"507","5","35"
"508","5","10"
"509","5","40"
"510","5","85"
"511","5","75"
"513","5","70"
"514","5","35"
"515","5","50"
"517","5","95"
"518","5","100"
"519","5","35"
"520","5","25"
"521","5","60"
"523","5","35"
"524","5","20"
"525","5","25"
"528","5","70"
"529","5","15"
"530","5","100"
"531","5","35"
"532","5","25"
"533","5","25"
"534","5","85"
"535","5","25"
"537","5","25"
"538","5","25"
"539","5","30"
"540","5","45"
"541","5","100"
"542","5","40"
"543","5","25"
"544","5","15"
"545","5","100"
"546","5","25"
"547","5","25"
"548","5","25"
"549","5","10"
"550","5","15"
"551","5","20"
"552","5","50"
"554","5","30"
"555","5","100"
"556","5","15"
"557","5","35"
"558","5","10"
"560","5","50"
"561","5","30"
"562","5","95"
"563","5","80"
"565","5","25"
"566","5","50"
"567","5","25"
"568","5","30"
"569","5","15"
"574","5","25"
"575","5","45"
"576","5","25"
"577","5","15"
"578","5","10"
"580","5","30"
"581","5","30"
"582","5","30"
"583","5","35"
"584","5","25"
"585","5","15"
"586","5","25"
"587","5","15"
"589","5","30"
"590","5","40"
"591","5","15"
"592","5","50"
"593","5","25"
"594","5","50"
"595","5","35"
"596","5","55"
"597","5","15"
"598","5","60"
"599","5","60"
"600","5","30"
"601","5","45"
"602","5","60"
"603","5","15"
"604","5","100"
"606","5","30"
"607","5","70"
"608","5","25"
"609","5","30"
"610","5","45"
"611","5","90"
"612","5","45"
"614","5","25"
"615","5","25"
"616","5","25"
"618","5","70"
"619","5","75"
"621","5","70"
"622","5","100"
"623","5","35"
"625","5","55"
"626","5","80"
"628","5","50"
"629","5","30"
"631","5","30"
"632","5","25"
"633","5","15"
"634","5","30"
"635","5","35"
"636","5","50"
"637","5","100"
"640","5","35"
"641","5","70"
"642","5","60"
"643","5","65"
"644","5","70"
"646","5","45"
"648","5","30"
"650","5","20"
"653","5","35"
"654","5","100"
"655","5","35"
"656","5","50"
"657","5","45"
"658","5","55"
"659","5","55"
"660","5","85"
"661","5","50"
"662","5","10"
"663","5","35"
"664","5","85"
"665","5","100"
"666","5","100"
"667","5","100"
"668","5","60"
"669","5","25"
"670","5","50"
"671","5","15"
"672","5","25"
"673","5","35"
"674","5","20"
"675","5","25"
"676","5","30"
"677","5","50"
"678","5","45"
"679","5","35"
"680","5","35"
"682","5","20"
"683","5","100"
"684","5","25"
"685","5","85"
"686","5","70"
"687","5","30"
"690","5","70"
"691","5","35"
"692","5","50"
"693","5","55"
"694","5","25"
"696","5","60"
"698","5","65"
"700","5","85"
"701","5","25"
"702","5","50"
"703","5","15"
"704","5","35"
"706","5","25"
"709","5","75"
"710","5","75"
"711","5","95"
"712","5","65"
"713","5","50"
"714","5","35"
"715","5","65"
"717","5","20"
"719","5","55"
"720","5","25"
"721","5","15"
"724","5","50"
"725","5","75"
"726","5","45"
"727","5","10"
"728","5","65"
"730","5","80"
"731","5","25"
"732","5","50"
"733","5","60"
"734","5","70"
"735","5","65"
"736","5","35"
"737","5","45"
"738","5","25"
"741","5","35"
"742","5","50"
"743","5","25"
"744","5","55"
"745","5","80"
"747","5","15"
"748","5","45"
"749","5","55"
"752","5","35"
"753","5","30"
"754","5","35"
"756","5","100"
"1","6","45"
"2","6","20"
"3","6","35"
"4","6","55"
"5","6","55"
"6","6","85"
"8","6","15"
"9","6","35"
"10","6","45"
"11","6","15"
"12","6","40"
"13","6","100"
"16","6","45"
"17","6","40"
"18","6","20"
"19","6","45"
"21","6","85"
"22","6","35"
"23","6","30"
"24","6","60"
"26","6","25"
"27","6","30"
"28","6","100"
"29","6","50"
"30","6","50"
"31","6","25"
"32","6","20"
"34","6","55"
"35","6","65"
"36","6","35"
"37","6","15"
"38","6","45"
"39","6","80"
"40","6","50"
"41","6","60"
"42","6","25"
"43","6","100"
"45","6","35"
"44","6","75"
"46","6","15"
"47","6","15"
"48","6","60"
"51","6","25"
"53","6","25"
"50","6","45"
"52","6","45"
"54","6","75"
"55","6","25"
"56","6","35"
"58","6","55"
"59","6","100"
"60","6","50"
"61","6","20"
"62","6","95"
"63","6","35"
"64","6","25"
"65","6","60"
"66","6","25"
"67","6","50"
"68","6","35"
"69","6","70"
"70","6","30"
"72","6","25"
"73","6","30"
"75","6","30"
"74","6","35"
"76","6","35"
"79","6","40"
"80","6","50"
"81","6","65"
"82","6","100"
"83","6","35"
"84","6","100"
"85","6","60"
"86","6","80"
"87","6","15"
"88","6","25"
"89","6","35"
"91","6","100"
"92","6","35"
"93","6","35"
"96","6","70"
"97","6","25"
"98","6","100"
"100","6","95"
"101","6","100"
"102","6","35"
"103","6","35"
"104","6","35"
"105","6","100"
"107","6","10"
"108","6","55"
"109","6","35"
"110","6","50"
"111","6","30"
"113","6","80"
"114","6","45"
"115","6","35"
"116","6","10"
"117","6","40"
"120","6","20"
"121","6","60"
"122","6","30"
"123","6","25"
"124","6","35"
"125","6","50"
"126","6","65"
"127","6","80"
"128","6","55"
"129","6","60"
"130","6","40"
"132","6","80"
"133","6","15"
"135","6","45"
"138","6","25"
"139","6","65"
"140","6","25"
"141","6","50"
"143","6","25"
"144","6","45"
"145","6","25"
"146","6","25"
"148","6","10"
"149","6","25"
"150","6","25"
"151","6","25"
"153","6","40"
"154","6","85"
"155","6","50"
"156","6","20"
"157","6","75"
"158","6","85"
"159","6","85"
"162","6","30"
"164","6","75"
"165","6","95"
"167","6","80"
"169","6","35"
"171","6","55"
"172","6","70"
"173","6","20"
"175","6","20"
"176","6","25"
"177","6","45"
"178","6","45"
"179","6","90"
"180","6","25"
"183","6","35"
"184","6","15"
"185","6","45"
"186","6","50"
"187","6","20"
"188","6","60"
"191","6","35"
"192","6","25"
"193","6","45"
"194","6","10"
"195","6","40"
"196","6","60"
"197","6","15"
"199","6","75"
"200","6","45"
"201","6","95"
"202","6","25"
"203","6","40"
"204","6","35"
"206","6","10"
"208","6","35"
"209","6","25"
"210","6","85"
"212","6","35"
"213","6","50"
"214","6","35"
"215","6","95"
"216","6","25"
"217","6","35"
"218","6","35"
"220","6","25"
"221","6","30"
"222","6","35"
"223","6","45"
"224","6","60"
"225","6","25"
"226","6","15"
"227","6","35"
"228","6","20"
"229","6","55"
"230","6","25"
"231","6","35"
"232","6","15"
"233","6","30"
"234","6","50"
"235","6","85"
"236","6","70"
"237","6","60"
"238","6","85"
"239","6","45"
"240","6","25"
"241","6","85"
"242","6","35"
"243","6","50"
"244","6","30"
"245","6","15"
"246","6","35"
"247","6","35"
"248","6","25"
"249","6","85"
"252","6","20"
"253","6","50"
"254","6","35"
"255","6","30"
"257","6","50"
"258","6","85"
"259","6","75"
"260","6","45"
"262","6","25"
"263","6","40"
"264","6","75"
"265","6","55"
"266","6","60"
"267","6","60"
"268","6","70"
"269","6","100"
"271","6","100"
"272","6","100"
"273","6","100"
"274","6","15"
"275","6","50"
"276","6","5"
"277","6","35"
"278","6","50"
"280","6","25"
"281","6","45"
"282","6","65"
"283","6","10"
"284","6","100"
"285","6","75"
"287","6","95"
"288","6","40"
"290","6","25"
"291","6","100"
"292","6","25"
"293","6","55"
"294","6","50"
"295","6","75"
"298","6","35"
"299","6","90"
"300","6","35"
"301","6","15"
"302","6","35"
"304","6","40"
"306","6","85"
"307","6","25"
"308","6","55"
"309","6","45"
"310","6","45"
"311","6","50"
"312","6","35"
"313","6","65"
"316","6","20"
"317","6","70"
"318","6","35"
"319","6","25"
"321","6","35"
"322","6","25"
"323","6","10"
"325","6","60"
"326","6","85"
"327","6","90"
"328","6","85"
"330","6","20"
"331","6","50"
"332","6","25"
"334","6","60"
"335","6","50"
"336","6","95"
"337","6","30"
"338","6","60"
"339","6","80"
"340","6","15"
"341","6","55"
"342","6","65"
"343","6","65"
"344","6","25"
"345","6","35"
"347","6","25"
"348","6","100"
"349","6","55"
"350","6","100"
"351","6","20"
"352","6","50"
"353","6","20"
"355","6","35"
"356","6","60"
"357","6","25"
"358","6","75"
"360","6","100"
"361","6","70"
"364","6","20"
"365","6","35"
"367","6","25"
"368","6","25"
"369","6","20"
"370","6","35"
"371","6","100"
"375","6","45"
"376","6","25"
"377","6","10"
"379","6","10"
"381","6","35"
"382","6","15"
"383","6","30"
"384","6","25"
"385","6","40"
"386","6","45"
"387","6","20"
"388","6","35"
"389","6","50"
"391","6","60"
"392","6","70"
"393","6","25"
"394","6","25"
"395","6","15"
"396","6","25"
"397","6","95"
"398","6","100"
"399","6","35"
"400","6","15"
"402","6","75"
"403","6","50"
"404","6","25"
"405","6","35"
"407","6","65"
"408","6","25"
"410","6","100"
"412","6","35"
"413","6","80"
"414","6","45"
"415","6","15"
"416","6","15"
"418","6","50"
"419","6","25"
"420","6","35"
"421","6","25"
"422","6","25"
"423","6","35"
"424","6","100"
"425","6","30"
"426","6","60"
"427","6","55"
"428","6","50"
"429","6","30"
"430","6","85"
"431","6","30"
"433","6","45"
"434","6","85"
"435","6","50"
"436","6","60"
"437","6","35"
"438","6","30"
"439","6","25"
"440","6","70"
"441","6","100"
"442","6","50"
"443","6","10"
"444","6","35"
"445","6","25"
"446","6","35"
"447","6","95"
"448","6","50"
"450","6","35"
"451","6","85"
"452","6","15"
"453","6","15"
"454","6","35"
"455","6","15"
"456","6","35"
"457","6","15"
"458","6","35"
"459","6","80"
"460","6","25"
"461","6","70"
"463","6","50"
"464","6","15"
"465","6","50"
"466","6","30"
"467","6","50"
"469","6","25"
"470","6","60"
"471","6","20"
"472","6","15"
"473","6","20"
"474","6","100"
"475","6","50"
"476","6","35"
"477","6","40"
"478","6","25"
"479","6","85"
"481","6","70"
"482","6","35"
"483","6","25"
"484","6","100"
"485","6","35"
"486","6","25"
"487","6","50"
"488","6","35"
"489","6","40"
"490","6","15"
"491","6","10"
"492","6","35"
"493","6","25"
"494","6","25"
"495","6","20"
"496","6","25"
"498","6","45"
"499","6","50"
"500","6","75"
"502","6","15"
"503","6","10"
"504","6","25"
"505","6","50"
"506","6","35"
"507","6","35"
"508","6","10"
"509","6","40"
"510","6","85"
"511","6","75"
"513","6","70"
"514","6","35"
"515","6","50"
"517","6","95"
"518","6","100"
"519","6","35"
"520","6","25"
"521","6","60"
"523","6","35"
"524","6","20"
"525","6","25"
"528","6","70"
"529","6","15"
"530","6","100"
"531","6","35"
"532","6","25"
"533","6","25"
"534","6","85"
"535","6","25"
"537","6","25"
"538","6","25"
"539","6","30"
"540","6","45"
"541","6","100"
"542","6","40"
"543","6","25"
"544","6","15"
"545","6","100"
"546","6","25"
"547","6","25"
"548","6","25"
"549","6","10"
"550","6","15"
"551","6","20"
"552","6","50"
"554","6","30"
"555","6","100"
"556","6","15"
"557","6","35"
"558","6","10"
"560","6","50"
"561","6","30"
"562","6","95"
"563","6","80"
"565","6","25"
"566","6","50"
"567","6","25"
"568","6","30"
"569","6","15"
"574","6","25"
"575","6","45"
"576","6","25"
"577","6","15"
"578","6","10"
"580","6","30"
"581","6","30"
"582","6","30"
"583","6","35"
"584","6","25"
"585","6","15"
"586","6","25"
"587","6","15"
"589","6","30"
"590","6","40"
"591","6","15"
"592","6","50"
"593","6","25"
"594","6","50"
"595","6","35"
"596","6","55"
"597","6","15"
"598","6","60"
"599","6","60"
"600","6","30"
"601","6","45"
"602","6","60"
"603","6","15"
"604","6","100"
"606","6","30"
"607","6","70"
"608","6","25"
"609","6","30"
"610","6","45"
"611","6","90"
"612","6","45"
"614","6","25"
"615","6","25"
"616","6","25"
"618","6","70"
"619","6","75"
"621","6","70"
"622","6","100"
"623","6","35"
"625","6","55"
"626","6","80"
"628","6","50"
"629","6","30"
"631","6","30"
"632","6","25"
"633","6","15"
"634","6","30"
"635","6","35"
"636","6","50"
"637","6","100"
"640","6","35"
"641","6","70"
"642","6","60"
"643","6","65"
"644","6","70"
"646","6","45"
"648","6","30"
"650","6","20"
"653","6","35"
"654","6","100"
"655","6","35"
"656","6","50"
"657","6","45"
"658","6","55"
"659","6","55"
"660","6","85"
"661","6","50"
"662","6","10"
"663","6","35"
"664","6","85"
"665","6","100"
"666","6","100"
"667","6","100"
"668","6","60"
"669","6","25"
"670","6","50"
"671","6","15"
"672","6","25"
"673","6","35"
"674","6","20"
"675","6","25"
"676","6","30"
"677","6","50"
"678","6","45"
"679","6","35"
"680","6","35"
"682","6","20"
"683","6","100"
"684","6","25"
"685","6","85"
"686","6","70"
"687","6","30"
"690","6","70"
"691","6","35"
"692","6","50"
"693","6","55"
"694","6","25"
"696","6","60"
"698","6","65"
"700","6","85"
"701","6","25"
"702","6","50"
"703","6","15"
"704","6","35"
"706","6","25"
"709","6","75"
"710","6","75"
"711","6","95"
"712","6","65"
"713","6","50"
"714","6","35"
"715","6","65"
"717","6","20"
"719","6","55"
"720","6","25"
"721","6","15"
"724","6","50"
"725","6","75"
"726","6","45"
"727","6","10"
"728","6","65"
"730","6","80"
"731","6","25"
"732","6","50"
"733","6","60"
"734","6","70"
"735","6","65"
"736","6","35"
"737","6","45"
"738","6","25"
"741","6","35"
"742","6","50"
"743","6","25"
"744","6","55"
"745","6","80"
"747","6","15"
"748","6","45"
"749","6","55"
"752","6","35"
"753","6","30"
"754","6","35"
"756","6","100"
